LOINC Answers
…
#LL construct (interim) between lab test and PV

Type

ga=codes %>% group_by(CLASSTYPE,SCALE_TYP) %>% summarize(n=n()) %>% ungroup() %>%  group_by(CLASSTYPE) %>% mutate(perc=100*n/sum(n))
ga

## # A tibble: 32 x 4
## # Groups:   CLASSTYPE [4]
##    CLASSTYPE SCALE_TYP     n     perc
##    <chr>     <chr>     <int>    <dbl>
##  1 1         -          1043  1.85   
##  2 1         Doc         690  1.22   
##  3 1         Nar         434  0.770  
##  4 1         Nom        3540  6.28   
##  5 1         Ord       14711 26.1    
##  6 1         OrdQn      1437  2.55   
##  7 1         Qn        34509 61.2    
##  8 2         -          1030  4.26   
##  9 2         *             1  0.00413
## 10 2         Doc        9512 39.3    
## # ... with 22 more rows
…
va<-lab_sbig %>% group_by(DisplayText) %>% summarize(n=n()
  ,shortnames=paste(SHORTNAME,collapse = '|')
  ,LONG_COMMON_NAMEs=paste(LONG_COMMON_NAME,collapse = '|')
  ) %>% arrange(desc(n)) %>%  ungroup() %>% mutate(perc=n/sum(n))
va %>% datatable(rownames = FALSE)

va %>% write_csv('LA-answers.csv')
#how many SCT answers  appear on only 1 loinc code?
va %>% count(n)

## # A tibble: 29 x 2
##        n    nn
##    <int> <int>
##  1     1    80
##  2     2     4
##  3     3    28
##  4     4    86
##  5     5     3
##  6     6     8
##  7     7     1
##  8     8     1
##  9     9     2
## 10    11     4
## # ... with 19 more rows
…
## # A tibble: 4 x 2
##   CLASSTYPE     n
##   <chr>     <int>
## 1 1          3859
## 2 2          3561
## 3 3           162
## 4 4          6411

#ppoint 130
nonfa

## # A tibble: 13,993 x 2
##    LoincNumber CLASSTYPE
##    <chr>       <chr>    
##  1 10061-0     2        
##  2 10389-5     1        
##  3 10390-3     1        
##  4 10393-7     1        
##  5 10395-2     1        
##  6 10401-8     1        
##  7 10410-9     1        
##  8 10568-4     1        
##  9 10570-0     1        
## 10 10571-8     1        
## # ... with 13,983 more rows
…
